\relax 
\@writefile{toc}{\contentsline {section}{\numberline {1}Halo finder}{2}}
\@writefile{toc}{\contentsline {subsection}{\numberline {1.1}DMLumberJack.readgadetdata.readsnapshot}{2}}
\@writefile{toc}{\contentsline {subsection}{\numberline {1.2}DMLumberJack.kdhalofinder.read\_sim}{3}}
\newlabel{xbar}{{2}{3}}
\@writefile{toc}{\contentsline {subsection}{\numberline {1.3}DMLumberJack.kdhalofinder.find\_halos}{5}}
\@writefile{toc}{\contentsline {subsection}{\numberline {1.4}DMLumberJack.kdhalofinder.halo\_prit\_stick}{8}}
\@writefile{toc}{\contentsline {subsection}{\numberline {1.5}DMLumberJack.kdhalofinder.find\_subhalos}{9}}
\@writefile{toc}{\contentsline {subsection}{\numberline {1.6}DMLumberJack.kdhalofinder.hosthalofinder}{10}}
\@writefile{toc}{\contentsline {section}{\numberline {2}Merger Graph}{12}}
\@writefile{toc}{\contentsline {subsection}{\numberline {2.1}DMLumberJack.mergergraph.directProgDescWriter}{12}}
\@writefile{toc}{\contentsline {subsection}{\numberline {2.2}DMLumberJack.mergergraph.directProgDescFinder}{14}}
\@writefile{toc}{\contentsline {section}{\numberline {3}Helper Functions}{16}}
\@writefile{toc}{\contentsline {subsection}{\numberline {3.1}DMLumberJack.SMTloader.opentree}{16}}
\@writefile{toc}{\contentsline {subsection}{\numberline {3.2}DMLumberJack.SMTloader.AHFhaloreader}{17}}
\@writefile{toc}{\contentsline {subsection}{\numberline {3.3}DMLumberJack.treedataloader}{18}}
\@writefile{toc}{\contentsline {section}{\numberline {4}Merger Graph Statistics}{19}}
\@writefile{toc}{\contentsline {subsection}{\numberline {4.1}DMLumberJack.forestgrowth.forestGrowth}{19}}
\@writefile{toc}{\contentsline {subsection}{\numberline {4.2}DMLumberJack.forestgrowth.forestGrowthPlot}{20}}
\@writefile{toc}{\contentsline {subsection}{\numberline {4.3}DMLumberJack.forestgrowth.mainbranchmassSMT}{21}}
\@writefile{toc}{\contentsline {subsection}{\numberline {4.4}DMLumberJack.forestgrowth.graphplot}{22}}
\@writefile{toc}{\contentsline {subsection}{\numberline {4.5}DMLumberJack.logMgrowth.logMassGrowth}{23}}
\@writefile{toc}{\contentsline {subsection}{\numberline {4.6}DMLumberJack.logMgrowth.mainBranchWalkLogM}{24}}
\@writefile{toc}{\contentsline {subsection}{\numberline {4.7}DMLumberJack.lostparticles.lostParticleFraction}{25}}
\@writefile{toc}{\contentsline {subsection}{\numberline {4.8}DMLumberJack.lostparticles.lostParticleFractionPlot}{26}}
\@writefile{toc}{\contentsline {subsection}{\numberline {4.9}DMLumberJack.massfluctuation.massflucuation}{27}}
\@writefile{toc}{\contentsline {subsection}{\numberline {4.10}DMLumberJack.massfluctuation.mainmfluc}{28}}
\@writefile{toc}{\contentsline {subsection}{\numberline {4.11}DMLumberJack.mainBranchLength.mainbranchlengthSMT}{29}}
\@writefile{toc}{\contentsline {subsection}{\numberline {4.12}DMLumberJack.mainBranchLength.mainbranchlengthDMLJ}{30}}
\@writefile{toc}{\contentsline {subsection}{\numberline {4.13}DMLumberJack.mainBranchLength.mainBranchLengthCompPlot}{31}}
\@writefile{toc}{\contentsline {subsection}{\numberline {4.14}DMLumberJack.analysis.ProgDescHistogram}{32}}
\@writefile{toc}{\contentsline {section}{\numberline {5}Data Format}{33}}
\@writefile{toc}{\contentsline {subsection}{\numberline {5.1}Halo data}{33}}
\@writefile{lof}{\contentsline {figure}{\numberline {1}{\ignorespaces A schematic showing the structure of the halo data's HDF5 files. Round cornered rectangles represent groups (either root or nested), ovals represent attributes and rectangles represent datasets. The red attributes in the root group are only saved in snapshot `061' (the present day snapshot) since they are constants of the simulation.}}{33}}
\newlabel{halodata}{{1}{33}}
\@writefile{toc}{\contentsline {subsection}{\numberline {5.2}Merger Graph data}{36}}
\@writefile{lof}{\contentsline {figure}{\numberline {2}{\ignorespaces A schematic showing the structure of the merger graph data's HDF5 files. Round cornered rectangles represent groups (either root or nested), ovals represent attributes and rectangles represent datasets.}}{36}}
\newlabel{treedata}{{2}{36}}
\@writefile{toc}{\contentsline {subsection}{\numberline {5.3}Halo/Tree Dictionaries}{38}}
